MO mura_maxon NULL C:/Xilinx91i/maxon_5lab/mura_maxon.vf vlg3F/mura__maxon.bin 1716240344
MO test_maxon2 NULL C:/Xilinx91i/maxon_5lab/test_maxon2.tfw vlg24/test__maxon2.bin 1716237515
MO test_maxon NULL C:/Xilinx91i/maxon_5lab/test_maxon.tfw vlg4A/test__maxon.bin 1716237567
MO mili_maxon NULL C:/Xilinx91i/maxon_5lab/mili_maxon.vf vlg6D/mili__maxon.bin 1716237814
MO OR6_MXILINX_mili_maxon NULL C:/Xilinx91i/maxon_5lab/mili_maxon.vf vlg23/_o_r6___m_x_i_l_i_n_x__mili__maxon.bin 1716237382
MO glbl NULL C:/Xilinx91i/verilog/src/glbl.v vlg2D/glbl.bin 1716237221
MO test_maxon_mura NULL C:/Xilinx91i/maxon_5lab/test_maxon_mura.tfw vlg02/test__maxon__mura.bin 1716240344
